Ben’s Projects - Australia Production Forecasting
…
#original variable Quarter contains both year YYYY and quarter, want to split for my purposes here - probably will want to separate by quarter
#the year YYYY: as "year"
aus$year = as.integer(sapply(strsplit(as.character(aus$Quarter), split = " "), "[[", 1))

#the quarter Q1, Q2, Q3 etc as "quarter"
aus$quarter = sapply(strsplit(as.character(aus$Quarter), split = " "), "[[", 2)

#original variable was called "Quarter" which is confusing, rename it to be more descriptive
colnames(aus)[colnames(aus) == 'Quarter'] <- 'year_quarter'

aus %>% 
    pivot_longer(cols = -c(year_quarter,year, quarter), names_to = "product", values_to = "quantity") 

# A tibble: 1,308 × 5
   year_quarter  year quarter product     quantity
          <qtr> <int> <chr>   <chr>          <dbl>
 1      1956 Q1  1956 Q1      Beer             284
 2      1956 Q1  1956 Q1      Tobacco         5225
 3      1956 Q1  1956 Q1      Bricks           189
 4      1956 Q1  1956 Q1      Cement           465
 5      1956 Q1  1956 Q1      Electricity     3923
 6      1956 Q1  1956 Q1      Gas                5
 7      1956 Q2  1956 Q2      Beer             213
 8      1956 Q2  1956 Q2      Tobacco         5178
 9      1956 Q2  1956 Q2      Bricks           204
10      1956 Q2  1956 Q2      Cement           532
# ℹ 1,298 more rows
…
